{
  "page": 1,
  "total_results": 10000,
  "total_pages": 500,
  "results": [
    {
      "popularity": 362.853,
      "vote_count": 716,
      "video": false,
      "poster_path": "/zfE0R94v1E8cuKAerbskfD3VfUt.jpg",
      "id": 474350,
      "adult": false,
      "backdrop_path": "/4W0FnjSGn4x0mKZlBRx8OjFxQUM.jpg",
      "original_language": "en",
      "original_title": "It Chapter Two",
      "genre_ids": [
        35,
        27
      ],
      "title": "It Chapter Two",
      "vote_average": 7.2,
      "overview": "27 years after overcoming the malevolent supernatural entity Pennywise, the former members of the Losers' Club, who have grown up and moved away from Derry, are brought back together by a devastating phone call.",
      "release_date": "2019-09-06"
    },
    
   
    {
      "popularity": 99.303,
      "vote_count": 325,
      "video": false,
      "poster_path": "/fapXd3v9qTcNBTm39ZC4KUVQDNf.jpg",
      "id": 423204,
      "adult": false,
      "backdrop_path": "/k2WyDw2NTUIWnuEs5gT7wgrCQg6.jpg",
      "original_language": "en",
      "original_title": "Angel Has Fallen",
      "genre_ids": [
        28
      ],
      "title": "Angel Has Fallen",
      "vote_average": 5.6,
      "overview": "Secret Service Agent Mike Banning is framed for the attempted assassination of the President and must evade his own agency and the FBI as he tries to uncover the real threat.",
      "release_date": "2019-08-23"
    },
    {
      "popularity": 96.994,
      "id": 52345,
      "video": false,
      "vote_count": 200,
      "vote_average": 7.7,
      "title": "Lisbela and the Prisoner",
      "release_date": "2003-08-22",
      "original_language": "pt",
      "original_title": "Lisbela e o Prisioneiro",
      "genre_ids": [
        35,
        10749
      ],
      "backdrop_path": "/4KDlC0cZvR5LtszqjFhZcMzdiUD.jpg",
      "adult": false,
      "overview": "Lisbela is a young woman who loves going to the movies. Leléu is a con man, going from town to town selling all sort of things and performing as master of ceremonies for some cheesy numbers, such as the woman who gets transformed into a gorilla. He gets involved with Linaura, a sexy and beautiful woman who happens to be the wife of the most frightening hitman of the place. The hitman finds out his wife's affair and goes after Leléu, who has to leave in a hurry. In another town, he meets and falls instantly in love with Lisbela, who is engaged to Douglas, a hillbilly who tries hard to pass for a cosmopolitan Rio de Janeiro dweller.",
      "poster_path": "/9nlaRxQeYaMrVVANMppagFohCRP.jpg"
    },
    {
      "popularity": 81.981,
      "vote_count": 1089,
      "video": false,
      "poster_path": "/keym7MPn1icW1wWfzMnW3HeuzWU.jpg",
      "id": 384018,
      "adult": false,
      "backdrop_path": "/hpgda6P9GutvdkDX5MUJ92QG9aj.jpg",
      "original_language": "en",
      "original_title": "Fast & Furious Presents: Hobbs & Shaw",
      "genre_ids": [
        28
      ],
      "title": "Fast & Furious Presents: Hobbs & Shaw",
      "vote_average": 6.5,
      "overview": "A spinoff of The Fate of the Furious, focusing on Johnson's US Diplomatic Security Agent Luke Hobbs forming an unlikely alliance with Statham's Deckard Shaw.",
      "release_date": "2019-08-02"
    },
    {
      "popularity": 109.164,
      "vote_count": 8057,
      "video": false,
      "poster_path": "/jpfkzbIXgKZqCZAkEkFH2VYF63s.jpg",
      "id": 920,
      "adult": false,
      "backdrop_path": "/a1MlbLBk5Sy6YvMbSuKfwGlDVlb.jpg",
      "original_language": "en",
      "original_title": "Cars",
      "genre_ids": [
        12,
        16,
        35,
        10751
      ],
      "title": "Cars",
      "vote_average": 6.7,
      "overview": "Lightning McQueen, a hotshot rookie race car driven to succeed, discovers that life is about the journey, not the finish line, when he finds himself unexpectedly detoured in the sleepy Route 66 town of Radiator Springs. On route across the country to the big Piston Cup Championship in California to compete against two seasoned pros, McQueen gets to know the town's offbeat characters.",
      "release_date": "2006-06-09"
    },
    {
      "popularity": 70.589,
      "vote_count": 10813,
      "video": false,
      "poster_path": "/5vHssUeVe25bMrof1HyaPyWgaP.jpg",
      "id": 245891,
      "adult": false,
      "backdrop_path": "/iJlGxN0p1suzloBGvvBu3QSSlhT.jpg",
      "original_language": "en",
      "original_title": "John Wick",
      "genre_ids": [
        28,
        53
      ],
      "title": "John Wick",
      "vote_average": 7.2,
      "overview": "Ex-hitman John Wick comes out of retirement to track down the gangsters that took everything from him.",
      "release_date": "2014-10-24"
    },
    {
      "popularity": 80.876,
      "vote_count": 1386,
      "video": false,
      "poster_path": "/fQ40gmFM4p03tXwMxQQKh2cCBW4.jpg",
      "id": 373571,
      "adult": false,
      "backdrop_path": "/cNt14e43I2DDW6Xd9zFhrP8eOcA.jpg",
      "original_language": "en",
      "original_title": "Godzilla: King of the Monsters",
      "genre_ids": [
        28,
        878
      ],
      "title": "Godzilla: King of the Monsters",
      "vote_average": 6.1,
      "overview": "Follows the heroic efforts of the crypto-zoological agency Monarch as its members face off against a battery of god-sized monsters, including the mighty Godzilla, who collides with Mothra, Rodan, and his ultimate nemesis, the three-headed King Ghidorah. When these ancient super-species - thought to be mere myths - rise again, they all vie for supremacy, leaving humanity's very existence hanging in the balance.",
      "release_date": "2019-05-31"
    },
    {
      "popularity": 69.277,
      "vote_count": 191,
      "video": false,
      "poster_path": "/m0clsFEXidLVJ0TueqWOvvImOMh.jpg",
      "id": 625450,
      "adult": false,
      "backdrop_path": "/8wfPjfUgmGpqCIW6gS0pS0pixnA.jpg",
      "original_language": "en",
      "original_title": "Tall Girl",
      "genre_ids": [
        35,
        18,
        10749
      ],
      "title": "Tall Girl",
      "vote_average": 6.5,
      "overview": "Jodi, the tallest girl in her high school, has always felt uncomfortable in her own skin. But after years of slouching, being made fun of, and avoiding attention at all costs, Jodi finally decides to find the confidence to stand tall.",
      "release_date": "2019-09-13"
    },
    {
      "popularity": 78.981,
      "vote_count": 400,
      "video": false,
      "poster_path": "/rpS7ROczWulqfaXG2klYapULXKm.jpg",
      "id": 533642,
      "adult": false,
      "backdrop_path": "/vHse4QK31Vc3X7BKKU5GOQhYxv6.jpg",
      "original_language": "en",
      "original_title": "Child's Play",
      "genre_ids": [
        27
      ],
      "title": "Child's Play",
      "vote_average": 6,
      "overview": "Karen, a single mother, gifts her son Andy a Buddi doll for his birthday, unaware of its more sinister nature. A contemporary re-imagining of the 1988 horror classic.",
      "release_date": "2019-06-21"
    },
    {
      "popularity": 73.936,
      "vote_count": 520,
      "video": false,
      "poster_path": "/7QPdjLr46huVv25W0eO2XZGOj3O.jpg",
      "id": 515195,
      "adult": false,
      "backdrop_path": "/aLNsCPNwzWbDmU4uyXSRxQSgzyJ.jpg",
      "original_language": "en",
      "original_title": "Yesterday",
      "genre_ids": [
        35,
        14,
        10402,
        10749
      ],
      "title": "Yesterday",
      "vote_average": 6.7,
      "overview": "Jack Malik is a struggling singer-songwriter in an English seaside town whose dreams of fame are rapidly fading, despite the fierce devotion and support of his childhood best friend, Ellie. After a freak bus accident during a mysterious global blackout, Jack wakes up to discover that he's the only person on Earth who can remember The Beatles.",
      "release_date": "2019-06-28"
    }
  ]
}



